#1.00
0.000001331751583145054308363574	6
0.000002331751583145054051353449	21
0.000003331751583145054217859797	70
0.000004331751583145054384366146	81
0.000005331751583145054127356021	83
0.000006331751583145053870345896	86
0.000007331751583145054460368718	88
0.000008331751583145053356325646	64
0.000009331751583145053946348468	62
0.000010331751583145054536371291	67
0.000011331751583145053432328218	45
0.000012331751583145054022351041	55
0.000013331751583145054612373863	42
0.000014331751583145053508330791	29
0.000015331751583145054098353613	30
0.000016331751583145054688376435	28
0.000017331751583145051890267468	20
0.000018331751583145055868422080	17
0.000019331751583145053070313113	13
0.000020331751583145050272204146	20
0.000021331751583145054250358758	11
0.000022331751583145051452249791	10
0.000023331751583145055430404402	7
0.000024331751583145052632295435	5
0.000025331751583145056610450047	4
0.000026331751583145053812341080	2
0.000027331751583145051014232113	3
0.000028331751583145054992386724	6
0.000029331751583145052194277758	7
0.000030331751583145056172432369	3
0.000031331751583145053374323402	2
0.000032331751583145057352478013	2
0.000033331751583145054554369047	3
0.000034331751583145051756260080	0
0.000035331751583145055734414691	0
0.000036331751583145052936305724	1
0.000037331751583145056914460336	0
0.000038331751583145054116351369	1
0.000039331751583145051318242402	0
0.000040331751583145055296397014	0
0.000041331751583145052498288047	1
0.000042331751583145056476442658	1
0.000043331751583145053678333691	0
0.000044331751583145050880224725	0
0.000045331751583145054858379336	1
0.000046331751583145052060270369	0
0.000047331751583145056038424980	1
0.000048331751583145053240316014	0
0.000049331751583145057218470625	1
0.000050331751583145054420361658	0
0.000051331751583145051622252691	0
0.000052331751583145055600407303	1
